stm32l0xx_hal_rtc_ex.c:185:19:HAL_RTCEx_SetTimeStamp	16	static
stm32l0xx_hal_rtc_ex.c:246:19:HAL_RTCEx_SetTimeStamp_IT	16	static
stm32l0xx_hal_rtc_ex.c:302:19:HAL_RTCEx_DeactivateTimeStamp	8	static
stm32l0xx_hal_rtc_ex.c:345:19:HAL_RTCEx_GetTimeStamp	32	static
stm32l0xx_hal_rtc_ex.c:396:19:HAL_RTCEx_SetTamper	20	static
stm32l0xx_hal_rtc_ex.c:488:19:HAL_RTCEx_SetTamper_IT	20	static
stm32l0xx_hal_rtc_ex.c:586:19:HAL_RTCEx_DeactivateTamper	16	static
stm32l0xx_hal_rtc_ex.c:723:13:HAL_RTCEx_TimeStampEventCallback	0	static
stm32l0xx_hal_rtc_ex.c:739:13:HAL_RTCEx_Tamper1EventCallback	0	static
stm32l0xx_hal_rtc_ex.c:755:13:HAL_RTCEx_Tamper2EventCallback	0	static
stm32l0xx_hal_rtc_ex.c:632:6:HAL_RTCEx_TamperTimeStampIRQHandler	8	static
stm32l0xx_hal_rtc_ex.c:788:19:HAL_RTCEx_PollForTimeStampEvent	24	static
stm32l0xx_hal_rtc_ex.c:828:19:HAL_RTCEx_PollForTamper1Event	24	static
stm32l0xx_hal_rtc_ex.c:861:19:HAL_RTCEx_PollForTamper2Event	24	static
stm32l0xx_hal_rtc_ex.c:946:19:HAL_RTCEx_SetWakeUpTimer	40	static
stm32l0xx_hal_rtc_ex.c:1036:19:HAL_RTCEx_SetWakeUpTimer_IT	40	static
stm32l0xx_hal_rtc_ex.c:1135:19:HAL_RTCEx_DeactivateWakeUpTimer	32	static
stm32l0xx_hal_rtc_ex.c:1187:10:HAL_RTCEx_GetWakeUpTimer	0	static
stm32l0xx_hal_rtc_ex.c:1226:13:HAL_RTCEx_WakeUpTimerEventCallback	0	static
stm32l0xx_hal_rtc_ex.c:1198:6:HAL_RTCEx_WakeUpTimerIRQHandler	8	static
stm32l0xx_hal_rtc_ex.c:1243:19:HAL_RTCEx_PollForWakeUpTimerEvent	24	static
stm32l0xx_hal_rtc_ex.c:1309:6:HAL_RTCEx_BKUPWrite	0	static
stm32l0xx_hal_rtc_ex.c:1331:10:HAL_RTCEx_BKUPRead	0	static
stm32l0xx_hal_rtc_ex.c:1364:19:HAL_RTCEx_SetSmoothCalib	40	static
stm32l0xx_hal_rtc_ex.c:1432:19:HAL_RTCEx_SetSynchroShift	32	static
stm32l0xx_hal_rtc_ex.c:1525:19:HAL_RTCEx_SetCalibrationOutPut	12	static
stm32l0xx_hal_rtc_ex.c:1563:19:HAL_RTCEx_DeactivateCalibrationOutPut	8	static
stm32l0xx_hal_rtc_ex.c:1592:19:HAL_RTCEx_SetRefClock	24	static
stm32l0xx_hal_rtc_ex.c:1641:19:HAL_RTCEx_DeactivateRefClock	24	static
stm32l0xx_hal_rtc_ex.c:1692:19:HAL_RTCEx_EnableBypassShadow	8	static
stm32l0xx_hal_rtc_ex.c:1724:19:HAL_RTCEx_DisableBypassShadow	8	static
stm32l0xx_hal_rtc_ex.c:1773:13:HAL_RTCEx_AlarmBEventCallback	0	static
stm32l0xx_hal_rtc_ex.c:1789:19:HAL_RTCEx_PollForAlarmBEvent	24	static
